^C:\USERS\700218190\SOURCE\REPOS\BMX.EXAMPRACTICAL\BMX.EXAMPRACTICAL\MAIN.CPP
C:\USERS\700218190\SOURCE\REPOS\BMX.EXAMPRACTICAL\BMX.EXAMPRACTICAL\DEBUG\VC141.PDB
C:\USERS\700218190\SOURCE\REPOS\BMX.EXAMPRACTICAL\BMX.EXAMPRACTICAL\DEBUG\VC141.IDB
C:\USERS\700218190\SOURCE\REPOS\BMX.EXAMPRACTICAL\BMX.EXAMPRACTICAL\DEBUG\MAIN.OBJ
^C:\USERS\BEN XIONG\SOURCE\REPOS\BMX.EXAM1\BMX.EXAMPRACTICAL\MAIN.CPP
C:\USERS\BEN XIONG\SOURCE\REPOS\BMX.EXAM1\BMX.EXAMPRACTICAL\DEBUG\VC142.PDB
C:\USERS\BEN XIONG\SOURCE\REPOS\BMX.EXAM1\BMX.EXAMPRACTICAL\DEBUG\VC142.IDB
C:\USERS\BEN XIONG\SOURCE\REPOS\BMX.EXAM1\BMX.EXAMPRACTICAL\DEBUG\MAIN.OBJ
